Alves,https://gitlab.com/ShEthan/tp-Ynov/
Beguerie,https://gitlab.com/eliottbeguerie/tp1-linux
bescond,https://gitlab.com/MBESCOND/tp_b1_leo
Bonomo,https://github.com/ValentinBonomo/tp-linux
BOURMAUD,https://gitlab.com/Hbourmaud/tplinux
BOUSSERIA,https://github.com/Userekt/TP1-LINUX
BRAVO,https://gitlab.com/Promethiyas/tplinux/
CHALAYE,https://gitlab.com/ETIENNECHALAYE/tp-linux
Corre,https://github.com/Aucorre/TP1_linux
DALAMELDEBOURNET,https://gitlab.com/victordebournet/tp_linux
DUBAQUIER,https://gitlab.com/justin.dubaquier/tp-linux/
DUNIAUD,https://gitlab.com/martyduniaud98/tp1
DURAND,https://gitlab.com/erwan.durand.73/rendu_de_tp_linux_erwan_durand
FERREIRA,https://github.com/AFERREIRA33/TPLinux
Gachassin,https://github.com/HyouKash/Tp-Linux
GADEBILLE,https://gitlab.com/baptgdb/five-ways-to-break-a-vm
Gaillard,https://github.com/Anthony-Gaillard/TP-linux-1.git
GARCIA,https://gitlab.com/Lukabdx/linux-b1/
GARRABOS,https://github.com/LGARRABOS/Linux
GILLES,https://gitlab.com/dreasy-dev/linux-tp
girod,https://github.com/Enrick1234/TP1-linux
GRAND-MORCEL,https://github.com/leo-grandmorcel/Cours-linux
JOVANOVIC,https://try.gitea.io/Gene/LinuX
KOERBER-NATHAN,https://github.com/oscarkn/tous-les-tp
LABASSE,https://github.com/MarceauLBS/TP1-LINUX
LAROUMANIE,https://gitlab.com/Scoobyy/tp-linux
machy,https://github.com/AntoineMACHY/are-you-dead-yet-
MAGNE,https://gitlab.com/Heroeselfric/projet-linux
martinezbienabe,https://gitlab.com/Alienore/tplinux
Morand,https://gitlab.com/adrien.morand63/tp-ynov
PORTE,https://gitlab.com/b1659/tp-linux/-/tree/main
PORTIER,https://github.com/Killrian47/TP_Linux
Pougeard-Dulimbert,https://github.com/Arthurdul/Tp-linux
Rogard,https://github.com/TomF0x/tp-linux
ROULLAND,https://github.com/KeunotorCagoule/TP-Linux
RUEMELI,https://gitlab.com/ruemeliquentin/linux
selva,https://github.com/daymoove/TP_Linux.git
Toulemon,https://gitlab.com/gymple.toulemon/tp-linux-1/
Vasseur,https://github.com/UnEpicier/TP-1-Linux
LABASSE,https://github.com/MarceauLBS/TP1-LINUX
EVEILLARD,https://gitlab.com/Fireginger/b1-linux-tp1
COUTANT,https://gitlab.com/mathiascoutant/linux 
pajak,https://gitlab.com/apajak1/tp.git
eymas, https://gitlab.com/eliotteymas/tp1/-/blob/main/README.md
VAYSSIER,https://gitlab.com/nmx6/linux-leo
GADEBILLE,https://gitlab.com/baptgdb/linux.tp
LAVAUD,https://github.com/Ciremy/tp-linux
RENZEMA,https://gitlab.com/marieliserenzema/linux/-/blob/main/__TP1___Are_you_dead_yet__.md
ALOUI,https://gitlab.com/Radwanee/tp_linux/-/tree/main
revol,https://gitlab.com/MartinREVOL/tplesvrais/-/blob/main/README.md
PORTE,https://gitlab.com/_Brante_/_linux_/-/tree/main/
RIVRY, https://gitlab.com/Zqo/tp-linux/-/blob/main/tp-linux.md
VIDALIE,https://gitlab.com/Ceduss/repo-tps/-/tree/main
